Wall time,Step,Value
1649289402.220142,0,0.09553120285272598
1649289510.107136,1,0.4444245994091034
1649289615.756558,2,0.5435651540756226
1649289720.441875,3,0.5992321372032166
1649289826.196058,4,0.6335490345954895
1649289931.748797,5,0.6571447253227234
1649290036.867773,6,0.6769933104515076
1649290142.06663,7,0.692592442035675
1649290247.832744,8,0.7041412591934204
1649290388.573148,9,0.7113307118415833
