Wall time,Step,Value
1649284101.231199,100,6.228896617889404
1649284105.433307,300,6.222594738006592
1649284107.507404,400,6.214157581329346
1649284109.596036,500,6.207629680633545
1649284120.131485,1000,6.160863876342773
1649284122.240251,1100,6.151862144470215
1649284124.337506,1200,6.143089771270752
1649284130.332487,1500,6.119013786315918
1649284132.460498,1600,6.111242294311523
1649284134.563249,1700,6.104769706726074
1649284138.740696,1900,6.090304851531982
1649284140.845847,2000,6.083468914031982
1649284142.908647,2100,6.076749324798584
1649284147.122974,2300,6.063715934753418
1649284149.238436,2400,6.05728006362915
1649284155.360334,2700,6.037556171417236
1649284157.462597,2800,6.031205177307129
1649284159.561882,2900,6.024600505828857
1649284161.682505,3000,6.018095016479492
1649284163.757037,3100,6.0112624168396
1649284170.116492,3400,5.990749835968018
1649284172.217711,3500,5.983694076538086
1649284176.422707,3700,5.968208312988281
1649284178.535505,3800,5.960268974304199
1649284180.634578,3900,5.951849937438965
1649284182.733118,4000,5.942836761474609
1649284184.851226,4100,5.933449745178223
1649284199.616309,4800,5.863534450531006
1649284201.716901,4900,5.852837085723877
1649284203.813745,5000,5.841817378997803
1649284205.924027,5100,5.830623626708984
1649284208.040814,5200,5.819361686706543
1649284210.147439,5300,5.80769157409668
1649284214.365257,5500,5.783055305480957
1649284216.496737,5600,5.770171642303467
1649284220.726609,5800,5.743678569793701
1649284227.060385,6100,5.701498508453369
1649284229.173213,6200,5.686469078063965
1649284231.295258,6300,5.671569347381592
1649284233.400852,6400,5.655936241149902
1649284237.642035,6600,5.624126434326172
1649284239.755377,6700,5.607998371124268
1649284241.88294,6800,5.592161655426025
1649284243.992305,6900,5.575989723205566
1649284248.209117,7100,5.5424723625183105
1649284250.30932,7200,5.5258660316467285
1649284254.519556,7400,5.491570949554443
1649284258.781652,7600,5.456954002380371
1649284262.957237,7800,5.422266006469727
1649284265.06622,7900,5.404785633087158
1649284267.191302,8000,5.387396812438965
1649284269.305403,8100,5.369821548461914
1649284273.513354,8300,5.335237979888916
1649284275.622825,8400,5.317866325378418
1649284279.876544,8600,5.283341407775879
1649284281.992465,8700,5.266180515289307
1649284288.283084,9000,5.215385913848877
1649284290.38432,9100,5.198574066162109
1649284300.914528,9600,5.115847110748291
1649284309.374234,10000,5.052201747894287
1649284311.491981,10100,5.036489009857178
1649284317.785627,10400,4.990575313568115
1649284319.907111,10500,4.975583553314209
1649284324.149046,10700,4.945774078369141
1649284326.257685,10800,4.931114196777344
1649284330.442918,11000,4.902262210845947
1649284332.553617,11100,4.888010025024414
1649284334.642567,11200,4.873791694641113
1649284336.724052,11300,4.859930038452148
1649284340.941152,11500,4.832394123077393
1649284343.071728,11600,4.819003105163574
1649284345.189732,11700,4.805673599243164
1649284355.645867,12200,4.740561008453369
1649284364.031188,12600,4.690279483795166
1649284366.100013,12700,4.677951335906982
1649284370.334391,12900,4.653940677642822
1649284372.457342,13000,4.641926288604736
1649284374.585947,13100,4.629939556121826
1649284376.70204,13200,4.618394374847412
1649284378.838741,13300,4.606964111328125
1649284383.085437,13500,4.584282398223877
1649284387.323862,13700,4.562167644500732
1649284389.438381,13800,4.551259517669678
1649284391.56289,13900,4.540322780609131
1649284402.16062,14400,4.488065719604492
1649284404.271676,14500,4.47798490524292
1649284408.517781,14700,4.4576334953308105
1649284410.629897,14800,4.4479146003723145
1649284416.975145,15100,4.418757915496826
1649284425.470921,15500,4.3811140060424805
1649284429.718004,15700,4.362861156463623
1649284431.857565,15800,4.353806495666504
1649284435.995741,16000,4.335803985595703
1649284457.611593,16100,2.920391798019409
1649284461.880342,16300,2.91218900680542
1649284463.959709,16400,2.9085693359375
1649284466.098728,16500,2.903480052947998
1649284470.360457,16700,2.9010658264160156
1649284474.59048,16900,2.8941097259521484
1649284478.849869,17100,2.889673948287964
1649284480.956449,17200,2.886629343032837
1649284483.08308,17300,2.8842999935150146
1649284487.295599,17500,2.8799214363098145
1649284489.42117,17600,2.8780744075775146
1649284491.534566,17700,2.8750391006469727
1649284493.651613,17800,2.874232292175293
1649284495.779693,17900,2.8719725608825684
1649284499.975814,18100,2.867250442504883
1649284502.104689,18200,2.864954710006714
1649284504.234207,18300,2.861844062805176
1649284506.388798,18400,2.8606820106506348
1649284508.524985,18500,2.8600988388061523
1649284510.660723,18600,2.8574447631835938
1649284512.789039,18700,2.854832887649536
1649284519.104773,19000,2.849677085876465
1649284521.177189,19100,2.8479013442993164
1649284523.248464,19200,2.8464293479919434
1649284525.364706,19300,2.845525026321411
1649284531.685283,19600,2.840454578399658
1649284538.054621,19900,2.8354556560516357
1649284540.203989,20000,2.8343331813812256
1649284542.346118,20100,2.8328638076782227
1649284546.606603,20300,2.8294577598571777
1649284548.720859,20400,2.827414035797119
1649284550.828511,20500,2.8261454105377197
1649284552.926328,20600,2.824425220489502
1649284557.15897,20800,2.8208911418914795
1649284561.376688,21000,2.817338705062866
1649284565.606691,21200,2.8140854835510254
1649284569.864078,21400,2.811732053756714
1649284574.08174,21600,2.8086225986480713
1649284576.185078,21700,2.80698561668396
1649284580.404641,21900,2.8038456439971924
1649284582.519775,22000,2.8023197650909424
1649284584.636567,22100,2.8004326820373535
1649284586.763304,22200,2.7990643978118896
1649284588.886388,22300,2.797781229019165
1649284593.134432,22500,2.794121742248535
1649284595.252245,22600,2.7927334308624268
1649284597.352764,22700,2.7911343574523926
1649284603.712788,23000,2.7873764038085938
1649284610.034295,23300,2.783527135848999
1649284614.244374,23500,2.7810606956481934
1649284616.331996,23600,2.7797579765319824
1649284618.468299,23700,2.7782256603240967
1649284620.609588,23800,2.7770330905914307
1649284622.740578,23900,2.7756006717681885
1649284624.878249,24000,2.7742068767547607
1649284629.136508,24200,2.7714595794677734
1649284631.259946,24300,2.770146369934082
1649284635.5219,24500,2.7681527137756348
1649284637.651151,24600,2.7664906978607178
1649284639.758242,24700,2.7651987075805664
1649284641.863959,24800,2.7638704776763916
1649284646.078999,25000,2.7613213062286377
1649284652.394719,25300,2.7575676441192627
1649284654.484827,25400,2.7562222480773926
1649284656.596621,25500,2.755138874053955
1649284662.933147,25800,2.7516489028930664
1649284665.049554,25900,2.7504355907440186
1649284667.172041,26000,2.7489802837371826
1649284669.295933,26100,2.747995138168335
1649284673.508369,26300,2.7459876537323
1649284675.613894,26400,2.7446365356445312
1649284686.1963,26900,2.7394018173217773
1649284690.470975,27100,2.7373428344726562
1649284692.580009,27200,2.7362542152404785
1649284698.911037,27500,2.7331578731536865
1649284701.023356,27600,2.7322030067443848
1649284703.149257,27700,2.7312746047973633
1649284707.394716,27900,2.7292284965515137
1649284711.630072,28100,2.7269983291625977
1649284715.856365,28300,2.7251510620117188
1649284717.973006,28400,2.724177122116089
1649284720.097521,28500,2.7233846187591553
1649284722.176566,28600,2.7222509384155273
1649284726.374602,28800,2.7202765941619873
1649284728.497821,28900,2.7192232608795166
1649284732.717775,29100,2.7172892093658447
1649284734.824188,29200,2.716444730758667
1649284743.282089,29600,2.712956666946411
1649284745.393959,29700,2.7120721340179443
1649284747.512463,29800,2.7109837532043457
1649284749.624201,29900,2.7100272178649902
1649284751.74975,30000,2.709176778793335
1649284762.239395,30500,2.704775810241699
1649284764.360661,30600,2.7038567066192627
1649284766.46089,30700,2.7030935287475586
1649284768.566976,30800,2.702131509780884
1649284770.659973,30900,2.7013204097747803
1649284772.779385,31000,2.700498580932617
1649284779.089555,31300,2.6982147693634033
1649284781.20405,31400,2.697434186935425
1649284783.320567,31500,2.6966867446899414
1649284785.439325,31600,2.695939064025879
1649284787.546345,31700,2.695072650909424
1649284791.759984,31900,2.6935243606567383
1649284793.821961,32000,2.69266676902771
1649284819.331005,32300,2.56486177444458
1649284823.560479,32500,2.5664920806884766
1649284834.150811,33000,2.565089464187622
1649284836.25777,33100,2.5630977153778076
1649284838.403386,33200,2.561382532119751
1649284840.513858,33300,2.5589771270751953
1649284842.633925,33400,2.5592947006225586
1649284851.096538,33800,2.56009578704834
1649284853.158484,33900,2.558826208114624
1649284857.335205,34100,2.557384729385376
1649284863.572285,34400,2.5564124584198
1649284865.656728,34500,2.555961847305298
1649284867.732857,34600,2.555588483810425
1649284869.85468,34700,2.55456280708313
1649284874.075686,34900,2.5536022186279297
1649284876.190984,35000,2.5525355339050293
1649284878.293816,35100,2.5523154735565186
1649284882.52026,35300,2.5542147159576416
1649284884.649694,35400,2.5537147521972656
1649284886.779737,35500,2.5544238090515137
1649284888.893509,35600,2.553481101989746
1649284893.093936,35800,2.5536673069000244
1649284895.187183,35900,2.5530786514282227
1649284899.395241,36100,2.5526442527770996
1649284901.516362,36200,2.552487373352051
1649284903.619452,36300,2.5527751445770264
1649284905.711167,36400,2.5524072647094727
1649284907.795215,36500,2.552370548248291
1649284909.902976,36600,2.5525102615356445
1649284912.014116,36700,2.5517876148223877
1649284914.141118,36800,2.551375150680542
1649284916.263792,36900,2.5509185791015625
1649284918.360033,37000,2.550910234451294
1649284928.91023,37500,2.5500025749206543
1649284931.011461,37600,2.549717664718628
1649284935.246032,37800,2.549396276473999
1649284937.324379,37900,2.5493004322052
1649284945.783207,38300,2.5486934185028076
1649284949.990848,38500,2.547820806503296
1649284952.074851,38600,2.5479722023010254
1649284954.184862,38700,2.547741413116455
1649284960.553601,39000,2.5477216243743896
1649284962.669132,39100,2.5479018688201904
1649284964.781275,39200,2.547978162765503
1649284966.898474,39300,2.5475540161132812
1649284969.008306,39400,2.5473859310150146
1649284971.131558,39500,2.547665596008301
1649284973.240454,39600,2.547295093536377
1649284975.362374,39700,2.547189950942993
1649284977.474484,39800,2.547172784805298
1649284979.598433,39900,2.5473616123199463
1649284981.699063,40000,2.5470337867736816
1649284983.801389,40100,2.546745538711548
1649284985.912644,40200,2.546661376953125
1649284988.029184,40300,2.546464681625366
1649284992.2757,40500,2.5463480949401855
1649284996.486105,40700,2.545699119567871
1649284998.590534,40800,2.545210838317871
1649285000.692486,40900,2.54506254196167
1649285002.805429,41000,2.544740676879883
1649285009.094763,41300,2.543651819229126
1649285011.196063,41400,2.54323673248291
1649285013.314697,41500,2.5428402423858643
1649285015.434151,41600,2.542475700378418
1649285021.721115,41900,2.5414249897003174
1649285023.840216,42000,2.5410549640655518
1649285028.074683,42200,2.540325403213501
1649285030.163871,42300,2.5400032997131348
1649285036.424798,42600,2.53916597366333
1649285038.480941,42700,2.538594961166382
1649285044.763618,43000,2.537759780883789
1649285046.853644,43100,2.5371735095977783
1649285048.984416,43200,2.5367941856384277
1649285055.359822,43500,2.5357308387756348
1649285057.46849,43600,2.535278558731079
1649285059.578756,43700,2.534872531890869
1649285061.685309,43800,2.5346479415893555
1649285063.829174,43900,2.533928871154785
1649285065.922546,44000,2.5336105823516846
1649285068.047627,44100,2.5331249237060547
1649285070.177375,44200,2.5327413082122803
1649285074.417731,44400,2.532001256942749
1649285076.557117,44500,2.531576156616211
1649285078.696982,44600,2.530975580215454
1649285080.829489,44700,2.530304431915283
1649285089.296275,45100,2.528101921081543
1649285091.415804,45200,2.527761936187744
1649285093.536739,45300,2.527320623397827
1649285095.643307,45400,2.5267786979675293
1649285097.746255,45500,2.526350975036621
1649285101.981996,45700,2.5255932807922363
1649285106.193436,45900,2.524322748184204
1649285110.417892,46100,2.5231621265411377
1649285112.5227,46200,2.5226972103118896
1649285114.627656,46300,2.522249698638916
1649285118.846364,46500,2.5213727951049805
1649285120.948415,46600,2.520768165588379
1649285123.044464,46700,2.5202903747558594
1649285127.285075,46900,2.5194828510284424
1649285131.517589,47100,2.518566846847534
1649285133.627232,47200,2.518122673034668
1649285137.819888,47400,2.5170984268188477
1649285139.943217,47500,2.5166261196136475
1649285142.072333,47600,2.5161991119384766
1649285148.427486,47900,2.5146677494049072
1649285150.451235,48000,2.5140328407287598
1649285171.793982,48100,2.4378209114074707
1649285173.913891,48200,2.4313015937805176
1649285176.016665,48300,2.4248950481414795
1649285178.132737,48400,2.4196338653564453
1649285180.250495,48500,2.419991970062256
1649285184.467365,48700,2.418397903442383
1649285186.601378,48800,2.417074203491211
1649285188.734038,48900,2.418226718902588
1649285190.879217,49000,2.4169747829437256
1649285195.145748,49200,2.416731595993042
1649285201.466504,49500,2.412259101867676
1649285203.573275,49600,2.4134066104888916
1649285207.754986,49800,2.4129440784454346
1649285209.853145,49900,2.4127962589263916
1649285216.144456,50200,2.413592576980591
1649285218.219644,50300,2.4136314392089844
1649285220.284471,50400,2.4131126403808594
1649285226.514399,50700,2.412226676940918
1649285230.729349,50900,2.410773277282715
1649285232.824445,51000,2.4104576110839844
1649285234.931984,51100,2.4101955890655518
1649285237.010503,51200,2.4105279445648193
1649285239.117512,51300,2.4112179279327393
1649285241.230822,51400,2.4112155437469482
1649285243.347884,51500,2.4106624126434326
1649285247.568851,51700,2.4096944332122803
1649285249.638343,51800,2.409553050994873
1649285251.733914,51900,2.408994674682617
1649285253.798058,52000,2.4094152450561523
1649285255.900611,52100,2.4089224338531494
1649285258.017125,52200,2.4084880352020264
1649285262.194679,52400,2.407641649246216
1649285268.502018,52700,2.4059953689575195
1649285276.94377,53100,2.403886079788208
1649285283.280143,53400,2.4032680988311768
1649285285.382853,53500,2.403203010559082
1649285287.490469,53600,2.4027037620544434
1649285289.593791,53700,2.4023709297180176
1649285291.672843,53800,2.4021780490875244
1649285293.789182,53900,2.401740550994873
1649285295.892983,54000,2.401172637939453
1649285297.995449,54100,2.400388479232788
1649285300.10066,54200,2.399629592895508
1649285302.193119,54300,2.3993914127349854
1649285304.301852,54400,2.399064540863037
1649285306.381563,54500,2.398458242416382
1649285310.558944,54700,2.397294282913208
1649285312.668149,54800,2.396998167037964
1649285318.977352,55100,2.3957901000976562
1649285323.213219,55300,2.3950705528259277
1649285325.322876,55400,2.3946266174316406
1649285327.428206,55500,2.394547462463379
1649285329.54425,55600,2.394017457962036
1649285331.650382,55700,2.3935978412628174
1649285344.186367,56300,2.3908679485321045
1649285346.275983,56400,2.390653133392334
1649285348.348955,56500,2.3904495239257812
1649285352.568227,56700,2.3892669677734375
1649285354.644128,56800,2.388728618621826
1649285356.72824,56900,2.3883118629455566
1649285358.820766,57000,2.3879477977752686
1649285363.007829,57200,2.3871524333953857
1649285367.231946,57400,2.3860158920288086
1649285373.538317,57700,2.384765625
1649285381.971858,58100,2.383021593093872
1649285390.397998,58500,2.3816449642181396
1649285392.505177,58600,2.38118052482605
1649285394.615251,58700,2.3806204795837402
1649285398.858095,58900,2.379810333251953
1649285400.971157,59000,2.3794331550598145
1649285403.066056,59100,2.378762722015381
1649285405.17268,59200,2.378115653991699
1649285407.300369,59300,2.377765417098999
1649285411.521416,59500,2.3771016597747803
1649285413.640316,59600,2.376634120941162
1649285415.760977,59700,2.376014232635498
1649285417.864641,59800,2.375558853149414
1649285419.977783,59900,2.3752894401550293
1649285422.0946,60000,2.3748278617858887
1649285426.276827,60200,2.3738818168640137
1649285428.393944,60300,2.3736469745635986
1649285430.500009,60400,2.3732964992523193
1649285434.723348,60600,2.3720743656158447
1649285438.953161,60800,2.371129035949707
1649285441.053497,60900,2.370525598526001
1649285443.17007,61000,2.3699395656585693
1649285445.274169,61100,2.3694350719451904
1649285451.595162,61400,2.368208885192871
1649285453.705383,61500,2.3678576946258545
1649285457.921723,61700,2.3669345378875732
1649285460.042873,61800,2.366476535797119
1649285462.158261,61900,2.366025447845459
1649285466.390788,62100,2.365000009536743
1649285470.664113,62300,2.3641796112060547
1649285472.795368,62400,2.3637855052948
1649285479.181126,62700,2.3625571727752686
1649285481.308104,62800,2.362169027328491
1649285483.434774,62900,2.3616278171539307
1649285485.545116,63000,2.361260414123535
1649285491.854407,63300,2.3600189685821533
1649285493.95871,63400,2.359537363052368
1649285496.053705,63500,2.3591184616088867
1649285498.180193,63600,2.3587632179260254
1649285502.394483,63800,2.3579273223876953
1649285527.956188,64100,2.2914319038391113
1649285530.066097,64200,2.2822775840759277
1649285532.186808,64300,2.2822282314300537
1649285534.312614,64400,2.2787060737609863
1649285536.435556,64500,2.2794458866119385
1649285538.543166,64600,2.2825942039489746
1649285544.864799,64900,2.2805020809173584
1649285546.978442,65000,2.2803969383239746
1649285551.197943,65200,2.2794249057769775
1649285553.29477,65300,2.2775392532348633
1649285555.391495,65400,2.277780055999756
1649285557.52536,65500,2.2780115604400635
1649285559.642682,65600,2.2776052951812744
1649285566.058178,65900,2.277864694595337
1649285568.180998,66000,2.2767531871795654
1649285570.300735,66100,2.276996612548828
1649285585.06488,66800,2.2732059955596924
1649285589.230962,67000,2.273254871368408
1649285591.341165,67100,2.273007869720459
1649285597.687271,67400,2.2741734981536865
1649285601.892881,67600,2.2731611728668213
1649285604.007737,67700,2.273127555847168
1649285606.126426,67800,2.2733101844787598
1649285608.237484,67900,2.272913694381714
1649285610.348204,68000,2.272998571395874
1649285612.462042,68100,2.2725064754486084
1649285616.691352,68300,2.2722158432006836
1649285618.80609,68400,2.2719826698303223
1649285620.907507,68500,2.2716729640960693
1649285623.026541,68600,2.2714486122131348
1649285627.25723,68800,2.270113945007324
1649285629.364275,68900,2.2696287631988525
1649285631.483848,69000,2.2693850994110107
1649285633.610898,69100,2.2687602043151855
1649285637.879832,69300,2.2684619426727295
1649285639.973628,69400,2.26819109916687
1649285642.094347,69500,2.2680270671844482
1649285644.204825,69600,2.267875909805298
1649285646.320779,69700,2.2676424980163574
1649285648.429178,69800,2.267547845840454
1649285652.612573,70000,2.2666141986846924
1649285658.903664,70300,2.2655482292175293
1649285660.998925,70400,2.264953374862671
1649285665.211516,70600,2.264333724975586
1649285673.650544,71000,2.2639803886413574
1649285675.774002,71100,2.2637851238250732
1649285680.00528,71300,2.263319969177246
1649285682.111071,71400,2.262924909591675
1649285686.303827,71600,2.262641668319702
1649285690.545671,71800,2.2619898319244385
1649285694.783875,72000,2.2615468502044678
1649285696.895912,72100,2.2612216472625732
1649285698.986733,72200,2.2609925270080566
1649285703.20903,72400,2.2603964805603027
1649285705.332655,72500,2.260223865509033
1649285707.440177,72600,2.2597098350524902
1649285709.549777,72700,2.2593801021575928
1649285711.654007,72800,2.258854627609253
1649285713.766893,72900,2.2585701942443848
1649285715.886066,73000,2.258470296859741
1649285717.999508,73100,2.2581284046173096
1649285720.116939,73200,2.2577638626098633
1649285722.236678,73300,2.257157564163208
1649285724.35269,73400,2.2566463947296143
1649285734.892066,73900,2.2547764778137207
1649285737.007161,74000,2.2543861865997314
1649285739.120578,74100,2.2542035579681396
1649285743.364392,74300,2.2533860206604004
1649285745.50682,74400,2.2532544136047363
1649285747.643279,74500,2.2529985904693604
1649285749.776989,74600,2.2525219917297363
1649285751.921336,74700,2.252140760421753
1649285762.492845,75200,2.2503256797790527
1649285764.601939,75300,2.250009775161743
1649285770.947799,75600,2.249117374420166
1649285773.050799,75700,2.2487547397613525
1649285777.273855,75900,2.2479326725006104
1649285779.380208,76000,2.247655153274536
1649285787.796633,76400,2.2462449073791504
1649285789.906582,76500,2.245974063873291
1649285792.002478,76600,2.245417356491089
1649285796.219,76800,2.244642734527588
1649285798.330639,76900,2.244196653366089
1649285800.442887,77000,2.243743658065796
1649285802.556167,77100,2.243401527404785
1649285804.658966,77200,2.2430121898651123
1649285806.763216,77300,2.2427382469177246
1649285808.874412,77400,2.2423272132873535
1649285813.097076,77600,2.241844654083252
1649285815.200348,77700,2.241456985473633
1649285817.312632,77800,2.241135597229004
1649285819.420085,77900,2.240729808807373
1649285821.537343,78000,2.2404558658599854
1649285823.656653,78100,2.2400312423706055
1649285825.762498,78200,2.239671468734741
1649285827.868128,78300,2.2393181324005127
1649285829.974201,78400,2.2389626502990723
1649285836.319107,78700,2.237793445587158
1649285840.557185,78900,2.237301826477051
1649285842.667982,79000,2.2370595932006836
1649285846.873373,79200,2.2363674640655518
1649285851.103519,79400,2.235870122909546
1649285855.317717,79600,2.2350692749023438
1649285857.439152,79700,2.234729290008545
1649285859.544586,79800,2.2343831062316895
1649285863.712523,80000,2.233440399169922
1649285884.922622,80100,2.172323703765869
1649285893.346058,80500,2.1771974563598633
1649285895.470345,80600,2.1766321659088135
1649285897.581857,80700,2.173092842102051
1649285899.700691,80800,2.174311876296997
1649285906.033534,81100,2.17714262008667
1649285908.133857,81200,2.175194025039673
1649285912.347504,81400,2.1726741790771484
1649285920.781994,81800,2.170933961868286
1649285922.885844,81900,2.1712324619293213
1649285925.00143,82000,2.1708226203918457
1649285929.224955,82200,2.1707210540771484
1649285931.330284,82300,2.1700520515441895
1649285933.447791,82400,2.1696784496307373
1649285935.559624,82500,2.1697282791137695
1649285937.670574,82600,2.1690726280212402
1649285939.783876,82700,2.168626546859741
1649285941.905715,82800,2.167517900466919
1649285944.015443,82900,2.1664133071899414
1649285948.248871,83100,2.167210578918457
1649285952.48843,83300,2.1679179668426514
1649285954.593959,83400,2.167442798614502
1649285958.811858,83600,2.167664051055908
1649285960.927459,83700,2.1673998832702637
1649285963.028754,83800,2.1668903827667236
1649285967.244896,84000,2.1664440631866455
1649285969.35806,84100,2.1663384437561035
1649285973.585358,84300,2.1658544540405273
1649285975.70386,84400,2.1655170917510986
1649285979.942157,84600,2.1651113033294678
1649285990.486114,85100,2.162815570831299
1649285992.60324,85200,2.1628289222717285
1649285998.946933,85500,2.1622579097747803
1649286003.166936,85700,2.161647081375122
1649286005.284578,85800,2.161757707595825
1649286007.400288,85900,2.1615312099456787
1649286011.618194,86100,2.1605350971221924
1649286013.733527,86200,2.160038948059082
1649286015.859401,86300,2.1599464416503906
1649286022.213186,86600,2.1589269638061523
1649286024.319019,86700,2.158914089202881
1649286028.55257,86900,2.1586194038391113
1649286032.757175,87100,2.1580440998077393
1649286034.884085,87200,2.1579630374908447
1649286045.448192,87700,2.1572389602661133
1649286047.557838,87800,2.1569149494171143
1649286053.88727,88100,2.1562888622283936
1649286056.006384,88200,2.1560654640197754
1649286058.119508,88300,2.1557693481445312
1649286060.236278,88400,2.155410051345825
1649286062.354209,88500,2.1552910804748535
1649286064.47471,88600,2.1548690795898438
1649286066.592843,88700,2.154336452484131
1649286068.720751,88800,2.1539907455444336
1649286070.839078,88900,2.1537108421325684
1649286075.062722,89100,2.1533870697021484
1649286079.293157,89300,2.152722120285034
1649286081.411318,89400,2.1525824069976807
1649286085.649347,89600,2.1516168117523193
1649286089.878574,89800,2.1509292125701904
1649286092.000647,89900,2.15057635307312
1649286098.326238,90200,2.149832248687744
1649286100.44566,90300,2.14941668510437
1649286104.678927,90500,2.148847818374634
1649286106.790561,90600,2.1486544609069824
1649286108.915038,90700,2.148543119430542
1649286111.035163,90800,2.1481404304504395
1649286113.140233,90900,2.1478867530822754
1649286117.369142,91100,2.147296905517578
1649286119.515566,91200,2.1467411518096924
1649286123.757724,91400,2.146415948867798
1649286125.870094,91500,2.146059989929199
1649286130.081385,91700,2.1453254222869873
1649286132.20233,91800,2.145016670227051
1649286134.308353,91900,2.1446564197540283
1649286136.438471,92000,2.1444802284240723
1649286138.586174,92100,2.144144058227539
1649286140.703028,92200,2.143947124481201
1649286144.979038,92400,2.1433701515197754
1649286153.431041,92800,2.141848087310791
1649286155.552894,92900,2.1413955688476562
1649286157.666246,93000,2.141040563583374
1649286159.779928,93100,2.1406612396240234
1649286161.897892,93200,2.140303373336792
1649286164.015499,93300,2.1400787830352783
1649286166.118556,93400,2.139853000640869
1649286168.229067,93500,2.1396126747131348
1649286170.346543,93600,2.1393370628356934
1649286178.852541,94000,2.1379499435424805
1649286183.094368,94200,2.1373090744018555
1649286185.192303,94300,2.137094259262085
1649286191.543434,94600,2.1362128257751465
1649286193.68863,94700,2.1358530521392822
1649286195.811169,94800,2.135624885559082
1649286200.046469,95000,2.135124444961548
1649286202.155988,95100,2.1349942684173584
1649286206.371294,95300,2.134441375732422
1649286210.588365,95500,2.1337697505950928
1649286212.704656,95600,2.133448600769043
1649286214.821395,95700,2.133190631866455
1649286221.100764,96000,2.132157564163208
1649286242.349998,96100,2.0743319988250732
1649286244.427642,96200,2.0786571502685547
1649286246.538784,96300,2.0778934955596924
1649286248.590034,96400,2.070833206176758
1649286250.696337,96500,2.0768847465515137
1649286252.817235,96600,2.078002452850342
1649286257.017103,96800,2.075718641281128
1649286259.144979,96900,2.0774667263031006
1649286265.521127,97200,2.0767829418182373
1649286276.097559,97700,2.07574200630188
1649286280.34237,97900,2.0751352310180664
1649286282.462897,98000,2.074036121368408
1649286286.707203,98200,2.0737595558166504
1649286288.826473,98300,2.0732176303863525
1649286290.941187,98400,2.0733799934387207
1649286297.327885,98700,2.07293701171875
1649286299.423116,98800,2.0721774101257324
1649286301.530364,98900,2.0719995498657227
1649286303.65286,99000,2.0720629692077637
1649286305.770268,99100,2.072988510131836
1649286309.960023,99300,2.073869228363037
1649286314.196975,99500,2.0736942291259766
1649286316.324772,99600,2.0734126567840576
1649286318.401626,99700,2.073544502258301
1649286322.6534,99900,2.0732650756835938
1649286324.783186,100000,2.0728414058685303
1649286329.027009,100200,2.072558879852295
1649286331.084556,100300,2.0727460384368896
1649286333.166502,100400,2.0722992420196533
1649286335.28329,100500,2.072181224822998
1649286337.398781,100600,2.0719239711761475
1649286339.51448,100700,2.0716214179992676
1649286341.647743,100800,2.071408987045288
1649286350.110556,101200,2.070636510848999
1649286354.310254,101400,2.0701656341552734
1649286358.563061,101600,2.069889783859253
1649286360.686407,101700,2.0697429180145264
1649286362.805753,101800,2.0695674419403076
1649286369.139935,102100,2.068220853805542
1649286373.348395,102300,2.0679218769073486
1649286381.826077,102700,2.067094326019287
1649286386.064149,102900,2.0668821334838867
1649286388.185833,103000,2.066462278366089
1649286392.422968,103200,2.0663533210754395
1649286400.902409,103600,2.0657474994659424
1649286403.017208,103700,2.0655956268310547
1649286405.147361,103800,2.0656309127807617
1649286407.284363,103900,2.065460443496704
1649286409.404341,104000,2.0651657581329346
1649286417.808833,104400,2.0646419525146484
1649286422.032351,104600,2.063929319381714
1649286424.146563,104700,2.06379771232605
1649286430.51305,105000,2.06306791305542
1649286436.852564,105300,2.062433958053589
1649286438.993082,105400,2.062018394470215
1649286441.137412,105500,2.0617735385894775
1649286445.39411,105700,2.06127667427063
1649286449.603556,105900,2.060967206954956
1649286451.723512,106000,2.060497760772705
1649286453.855391,106100,2.0603182315826416
1649286458.105283,106300,2.0598466396331787
1649286464.464379,106600,2.0592939853668213
1649286466.593294,106700,2.0591111183166504
1649286468.718765,106800,2.0589101314544678
1649286472.973099,107000,2.0584781169891357
1649286475.082434,107100,2.058060646057129
1649286477.230026,107200,2.057718515396118
1649286479.360317,107300,2.0574824810028076
1649286481.474992,107400,2.0572972297668457
1649286483.585262,107500,2.057086944580078
1649286489.919129,107800,2.056302070617676
1649286492.034718,107900,2.0559515953063965
1649286496.288036,108100,2.0554230213165283
1649286498.417909,108200,2.0552096366882324
1649286500.515656,108300,2.054941177368164
1649286502.633958,108400,2.0548129081726074
1649286506.863858,108600,2.054259777069092
1649286508.983356,108700,2.0539004802703857
1649286511.103257,108800,2.0536048412323
1649286519.64361,109200,2.0524353981018066
1649286521.769516,109300,2.0522422790527344
1649286523.919826,109400,2.051887273788452
1649286534.526011,109900,2.0507524013519287
1649286538.743758,110100,2.0502994060516357
1649286542.970504,110300,2.04988956451416
1649286545.06194,110400,2.0495665073394775
1649286547.151049,110500,2.0492961406707764
1649286553.496607,110800,2.048619508743286
1649286555.590944,110900,2.0484654903411865
1649286557.701013,111000,2.0482442378997803
1649286559.799697,111100,2.048213481903076
1649286561.921626,111200,2.0479400157928467
1649286564.035171,111300,2.0476362705230713
1649286566.158519,111400,2.0473883152008057
1649286568.267759,111500,2.0471889972686768
1649286572.468843,111700,2.046633005142212
1649286574.57079,111800,2.0464346408843994
1649286578.689915,112000,2.0457229614257812
1649286600.011746,112100,1.9920698404312134
1649286602.126557,112200,1.9958891868591309
1649286604.241154,112300,1.9982637166976929
1649286610.512375,112600,1.9977736473083496
1649286612.610781,112700,1.9972455501556396
1649286616.828595,112900,1.9982244968414307
1649286618.926183,113000,1.9992812871932983
1649286621.010428,113100,1.9992364645004272
1649286623.09367,113200,1.998185396194458
1649286625.195374,113300,1.996642827987671
1649286627.306004,113400,1.995604395866394
1649286629.428,113500,1.9959323406219482
1649286631.54773,113600,1.996669054031372
1649286633.666166,113700,1.9965975284576416
1649286635.792112,113800,1.9968554973602295
1649286639.991167,114000,1.9966727495193481
1649286642.102515,114100,1.9965806007385254
1649286646.301963,114300,1.9966317415237427
1649286652.663198,114600,1.996802568435669
1649286654.77096,114700,1.9959595203399658
1649286658.996527,114900,1.9945416450500488
1649286661.114427,115000,1.9945147037506104
1649286663.215158,115100,1.9953348636627197
1649286665.346924,115200,1.9957308769226074
1649286667.471405,115300,1.9960583448410034
1649286669.585602,115400,1.9960846900939941
1649286673.830532,115600,1.9957656860351562
1649286682.201455,116000,1.9954074621200562
1649286684.252681,116100,1.9953397512435913
1649286688.476441,116300,1.9952468872070312
1649286692.719993,116500,1.9947096109390259
1649286696.931297,116700,1.9940816164016724
1649286699.028528,116800,1.9934887886047363
1649286709.525098,117300,1.9933524131774902
1649286711.630923,117400,1.9932811260223389
1649286713.738307,117500,1.9929964542388916
1649286717.998731,117700,1.9930278062820435
1649286720.097906,117800,1.9932100772857666
1649286722.203112,117900,1.993008017539978
1649286726.44597,118100,1.9919410943984985
1649286730.683676,118300,1.9917652606964111
1649286734.918364,118500,1.9914909601211548
1649286739.204335,118700,1.9913976192474365
1649286743.458688,118900,1.9912773370742798
1649286745.572827,119000,1.990957260131836
1649286747.680966,119100,1.991150975227356
1649286754.036602,119400,1.9906175136566162
1649286756.139812,119500,1.9907681941986084
1649286758.248651,119600,1.990734338760376
1649286760.360242,119700,1.9904427528381348
1649286762.480119,119800,1.990398645401001
1649286764.610486,119900,1.9901762008666992
1649286770.998547,120200,1.9895353317260742
1649286773.107913,120300,1.9893879890441895
1649286779.486585,120600,1.9890292882919312
1649286781.617601,120700,1.9886406660079956
1649286783.748317,120800,1.988384485244751
1649286787.976506,121000,1.9883986711502075
1649286790.090826,121100,1.9881670475006104
1649286796.4258,121400,1.9872233867645264
1649286798.525822,121500,1.9870277643203735
1649286800.65204,121600,1.9869059324264526
1649286804.886566,121800,1.98648202419281
1649286806.987503,121900,1.986283779144287
1649286813.327275,122200,1.9858653545379639
1649286815.44619,122300,1.985615849494934
1649286817.563273,122400,1.985520601272583
1649286821.78896,122600,1.985360026359558
1649286828.142361,122900,1.9851242303848267
1649286830.257851,123000,1.9849321842193604
1649286836.600377,123300,1.9841111898422241
1649286838.731725,123400,1.9841355085372925
1649286840.865629,123500,1.9837327003479004
1649286849.385293,123900,1.9829843044281006
1649286853.620274,124100,1.982778787612915
1649286855.735946,124200,1.9825080633163452
1649286857.856777,124300,1.9824190139770508
1649286859.963596,124400,1.9824179410934448
1649286862.079898,124500,1.9821438789367676
1649286864.18897,124600,1.9817359447479248
1649286866.302218,124700,1.9815270900726318
1649286872.64178,125000,1.980735421180725
1649286874.755202,125100,1.9805185794830322
1649286876.850973,125200,1.9803879261016846
1649286878.962305,125300,1.9802426099777222
1649286883.219916,125500,1.9800344705581665
1649286887.445561,125700,1.9796819686889648
1649286889.595229,125800,1.9793944358825684
1649286895.917308,126100,1.978784203529358
1649286898.042193,126200,1.9786303043365479
1649286902.306047,126400,1.9782626628875732
1649286904.412135,126500,1.9780725240707397
1649286906.510451,126600,1.9779185056686401
1649286910.713889,126800,1.9775630235671997
1649286912.824074,126900,1.9774328470230103
1649286919.178788,127200,1.977019190788269
1649286921.294731,127300,1.9769139289855957
1649286929.725452,127700,1.976109266281128
1649286931.81103,127800,1.9760288000106812
1649286933.909247,127900,1.9757612943649292
1649286935.944563,128000,1.9754301309585571
1649286957.281109,128100,1.9397385120391846
1649286961.484613,128300,1.9391275644302368
1649286963.603985,128400,1.9357455968856812
1649286967.818848,128600,1.9380815029144287
1649286969.899827,128700,1.9377521276474
1649286974.053462,128900,1.9391087293624878
1649286978.323657,129100,1.9386632442474365
1649286980.438768,129200,1.9389811754226685
1649286982.568885,129300,1.9383264780044556
1649286984.710226,129400,1.938164234161377
1649286988.927303,129600,1.9372291564941406
1649286991.029043,129700,1.939333438873291
1649286995.245837,129900,1.93943190574646
1649286997.351929,130000,1.9382266998291016
1649287001.564476,130200,1.9389241933822632
1649287003.654425,130300,1.937790036201477
1649287007.860549,130500,1.9392892122268677
1649287009.982281,130600,1.938747763633728
1649287012.075456,130700,1.9379374980926514
1649287014.179826,130800,1.9373399019241333
1649287020.498918,131100,1.9372621774673462
1649287026.826069,131400,1.9387192726135254
1649287028.943796,131500,1.9388258457183838
1649287031.057849,131600,1.9391601085662842
1649287041.677898,132100,1.9389663934707642
1649287045.908839,132300,1.9391839504241943
1649287048.047584,132400,1.9388536214828491
1649287050.171154,132500,1.9390705823898315
1649287052.269734,132600,1.9389066696166992
1649287054.380797,132700,1.9385982751846313
1649287058.641696,132900,1.9379621744155884
1649287069.119313,133400,1.9381403923034668
1649287073.333458,133600,1.938065528869629
1649287085.968246,134200,1.9373245239257812
1649287088.100841,134300,1.9371933937072754
1649287092.291718,134500,1.9374135732650757
1649287094.382613,134600,1.9372775554656982
1649287098.649959,134800,1.9373538494110107
1649287100.793344,134900,1.9376194477081299
1649287107.188736,135200,1.9372025728225708
1649287109.307407,135300,1.9370423555374146
1649287113.516205,135500,1.937276005744934
1649287115.617236,135600,1.9374921321868896
1649287117.723171,135700,1.9373271465301514
1649287119.817951,135800,1.9369868040084839
1649287121.916765,135900,1.937010645866394
1649287126.133384,136100,1.936725378036499
1649287134.571896,136500,1.936344027519226
1649287136.69983,136600,1.9362093210220337
1649287138.816148,136700,1.9359726905822754
1649287140.929371,136800,1.935836911201477
1649287143.050093,136900,1.9357786178588867
1649287151.442048,137300,1.9354170560836792
1649287153.520966,137400,1.9351460933685303
1649287155.620659,137500,1.935012936592102
1649287157.755876,137600,1.9349523782730103
1649287159.886189,137700,1.9349093437194824
1649287168.340616,138100,1.9342796802520752
1649287170.448007,138200,1.9341092109680176
1649287178.875839,138600,1.9338340759277344
1649287181.014731,138700,1.9338215589523315
1649287183.129342,138800,1.9337788820266724
1649287189.529299,139100,1.9335163831710815
1649287191.625042,139200,1.93316650390625
1649287195.844836,139400,1.932948350906372
1649287197.954589,139500,1.933064579963684
1649287202.167778,139700,1.9327259063720703
1649287204.274753,139800,1.9326224327087402
1649287208.512181,140000,1.9323753118515015
1649287210.623337,140100,1.932196021080017
1649287216.981582,140400,1.931934118270874
1649287219.102724,140500,1.9316948652267456
1649287221.214672,140600,1.9314165115356445
1649287223.330193,140700,1.9311951398849487
1649287238.099855,141400,1.9302572011947632
1649287244.460227,141700,1.9300252199172974
1649287246.570677,141800,1.9298007488250732
1649287250.817446,142000,1.9295055866241455
1649287255.008661,142200,1.92927885055542
1649287257.113521,142300,1.929211974143982
1649287263.442247,142600,1.92875337600708
1649287265.55688,142700,1.928641676902771
1649287269.79717,142900,1.9285756349563599
1649287276.131185,143200,1.9284250736236572
1649287278.236647,143300,1.928383469581604
1649287280.380771,143400,1.9282221794128418
1649287282.509016,143500,1.9280965328216553
1649287286.762503,143700,1.927901029586792
1649287290.96539,143900,1.9276158809661865
1649287292.994977,144000,1.9273966550827026
1649287314.1764,144100,1.9117375612258911
1649287316.297086,144200,1.9051809310913086
1649287322.600264,144500,1.9024277925491333
1649287326.835683,144700,1.9049144983291626
1649287328.950478,144800,1.903958797454834
1649287331.104087,144900,1.90472412109375
1649287333.264609,145000,1.905740737915039
1649287335.396958,145100,1.9064710140228271
1649287337.496118,145200,1.9062892198562622
1649287339.617801,145300,1.905914545059204
1649287343.846266,145500,1.9032148122787476
1649287345.953317,145600,1.9044560194015503
1649287348.05104,145700,1.9048255681991577
1649287350.15904,145800,1.904502511024475
1649287352.234769,145900,1.90398108959198
1649287354.310746,146000,1.9041649103164673
1649287356.407218,146100,1.9046380519866943
1649287358.518839,146200,1.904950499534607
1649287360.642469,146300,1.9053300619125366
1649287362.776815,146400,1.9051461219787598
1649287364.906329,146500,1.9053175449371338
1649287377.618021,147100,1.904142141342163
1649287383.972978,147400,1.9054229259490967
1649287386.078792,147500,1.9055672883987427
1649287390.291824,147700,1.9058985710144043
1649287392.408888,147800,1.905699372291565
1649287400.834477,148200,1.9065570831298828
1649287402.951146,148300,1.9063633680343628
1649287405.060504,148400,1.9064879417419434
1649287407.137309,148500,1.9066840410232544
1649287413.538672,148800,1.906239628791809
1649287415.643572,148900,1.906239628791809
1649287417.770286,149000,1.9061546325683594
1649287419.866574,149100,1.905936360359192
1649287421.948387,149200,1.9061834812164307
1649287426.155985,149400,1.906347632408142
1649287428.256531,149500,1.906546711921692
1649287436.632374,149900,1.9069116115570068
1649287438.699742,150000,1.9065260887145996
1649287440.804808,150100,1.9062318801879883
1649287445.036398,150300,1.9064466953277588
1649287451.381173,150600,1.9060173034667969
1649287459.810086,151000,1.9065641164779663
1649287461.882669,151100,1.906636357307434
1649287463.948378,151200,1.906407356262207
1649287466.044389,151300,1.9064953327178955
1649287468.184956,151400,1.9063692092895508
1649287472.420287,151600,1.9069401025772095
1649287474.525412,151700,1.9067904949188232
1649287489.342362,152400,1.9071484804153442
1649287495.710679,152700,1.90682852268219
1649287499.943952,152900,1.9065256118774414
1649287504.223109,153100,1.9067621231079102
1649287510.506961,153400,1.9065041542053223
1649287512.624882,153500,1.906382441520691
1649287518.860054,153800,1.9064232110977173
1649287520.9346,153900,1.906276822090149
1649287523.035601,154000,1.9062368869781494
1649287525.168652,154100,1.9061157703399658
1649287527.300379,154200,1.906201958656311
1649287535.649625,154600,1.906152367591858
1649287539.800545,154800,1.9061250686645508
1649287541.925801,154900,1.9061658382415771
1649287544.040069,155000,1.906190037727356
1649287548.268113,155200,1.9058972597122192
1649287550.367927,155300,1.9058082103729248
1649287552.446119,155400,1.9059306383132935
1649287556.692787,155600,1.9058105945587158
1649287560.919579,155800,1.9057203531265259
1649287565.123744,156000,1.9058094024658203
1649287567.202393,156100,1.9056591987609863
1649287571.363942,156300,1.905705451965332
1649287573.482083,156400,1.9057425260543823
1649287575.5921,156500,1.9057570695877075
1649287577.71223,156600,1.9054694175720215
1649287579.796241,156700,1.9053694009780884
1649287584.014214,156900,1.905089020729065
1649287588.180151,157100,1.9049628973007202
1649287590.294908,157200,1.9048823118209839
1649287592.365535,157300,1.9048889875411987
1649287594.465136,157400,1.9048898220062256
1649287596.54786,157500,1.904861569404602
1649287600.729256,157700,1.904932975769043
1649287604.958818,157900,1.9047670364379883
1649287607.082507,158000,1.9046156406402588
1649287609.2151,158100,1.9045746326446533
1649287611.342499,158200,1.9045100212097168
1649287613.471565,158300,1.9044090509414673
1649287619.837827,158600,1.90434730052948
1649287628.275968,159000,1.90433669090271
1649287630.400401,159100,1.9043461084365845
1649287638.756266,159500,1.9043673276901245
1649287640.870243,159600,1.9042075872421265
1649287642.918478,159700,1.9040855169296265
1649287645.001354,159800,1.9040461778640747
1649287649.150643,160000,1.9037868976593018
